…
### **Combine data from all 3 sources**
  
Data was combined from all 3 sources and the information on source type was preserved in the sample set

```r
textSentences <- rbind(twitterSentences, blogsSentences, newsSentences)
textSentences
```

```
# A tibble: 200,000 × 2
   source  sentences                                                  
   <chr>   <chr>                                                      
 1 twitter Follow up, did you ever find that baby deer?               
 2 twitter Easy A+. c:                                                
 3 twitter haha                                                       
 4 twitter If you could write a book, it would be about ____________ ?
 5 twitter Les Créations de NARISAWA in Japan - reservations made     
 6 twitter Patrick’s Day!                                             
 7 twitter The 48 wins in Darlington.                                 
 8 twitter My apologize for the last post.                            
 9 twitter followed by much destruction of dining furniture.          
10 twitter Saved the American auto industry                           
# ℹ 199,990 more rows
```
…
All types of n-grams are combined into 1 data set.   
The source and n-gram type were given their own columns and converted to a factor which will be useful during exploratory data analysis.

```r
text_ngrams <- rbind(words, bigrams, trigrams, quadgrams)
text_ngrams <- text_ngrams %>%
    mutate(source = factor(source),
           ngram = factor(ngram, levels = c("word", "bigram", "trigram",
                                            "quadgram")))
text_ngrams
```

```
# A tibble: 9,320,777 × 3
   source  token  ngram
   <fct>   <chr>  <fct>
 1 twitter follow word 
 2 twitter up     word 
 3 twitter did    word 
 4 twitter you    word 
 5 twitter ever   word 
 6 twitter find   word 
 7 twitter that   word 
 8 twitter baby   word 
 9 twitter deer   word 
10 twitter easy   word 
# ℹ 9,320,767 more rows
```
…
